<svg width="29" height="143" viewBox="0 0 29 143" fill="none" xmlns="http://www.w3.org/2000/svg">
<g clip-path="url(#clip0_51_436)">
<path fill-rule="evenodd" clip-rule="evenodd" d="M16.2771 0C16.9097 0.0110986 19.6561 0.284865 19.7649 0.153531C20.1615 0.32001 20.4492 0.989626 20.8421 1.13021C21.104 1.22455 21.4397 1.05252 21.7643 1.13021C22.4375 1.29484 23.3874 2.31591 23.5608 3.03362L23.8669 2.98182C23.8319 3.28704 24.8869 4.93518 25.158 5.1442L25.621 5.04061C25.5859 5.1257 25.5509 5.21265 25.5177 5.29773C26.3366 6.06354 25.977 8.38315 25.9788 9.46526C25.9788 11.685 24.5955 13.962 23.2601 15.0719C22.5463 15.6675 21.6352 16.3113 21.1575 17.1307C20.6798 17.9501 19.3831 19.2561 20.0803 20.7322L20.6447 21.1965C21.4913 22.1584 22.6072 22.9612 23.3634 23.9711C23.9758 24.7924 24.258 25.7155 24.7486 26.6977C25.4439 28.0906 26.2536 29.4927 26.7498 31.0705C27.2847 32.7723 28.1608 36.7845 27.8269 38.9413C27.5247 41.0225 27.351 43.1204 27.3068 45.2231C27.4777 47.3319 27.6486 49.4412 27.8196 51.5512C27.8712 52.8719 27.9222 54.192 27.9726 55.5115C28.3102 57.5685 28.1571 60.16 28.537 61.9857C28.5198 62.479 28.5026 62.9772 28.4854 63.4803C28.8856 66.07 28.9502 69.1018 29 71.6064C28.7178 71.8006 28.6311 72.1613 28.3839 72.3278C27.6277 72.8827 26.1245 72.7754 25.562 73.5116L25.4587 73.5616C25.3056 74.0776 25.1507 74.5919 24.9976 75.1061C24.7412 75.6721 24.4867 76.2363 24.2285 76.8023C24.1934 77.078 24.1584 77.3573 24.1252 77.6273C23.8983 78.0972 23.3044 78.3173 23.4593 79.2718C23.6438 80.4186 24.7504 81.2436 24.5881 82.6698C24.3871 84.3494 24.5457 86.275 23.9721 87.7104C23.7489 88.2654 23.3542 88.7223 23.2527 89.5103C23.4907 89.6453 23.7913 89.8377 23.664 90.1799C23.5054 91.0696 22.3729 91.1362 22.2789 92.0296C22.451 92.7338 22.6219 93.4373 22.7916 94.1402V97.7935C22.5924 98.7739 21.7606 99.2363 21.6628 99.7487C21.7489 100.056 21.8344 100.364 21.9192 100.674L22.3305 101.032C22.6994 101.937 22.2383 102.901 22.1774 103.759C22.5961 104.046 22.4117 104.303 22.5353 104.787C22.6183 105.113 22.9632 105.674 23.048 106.127C23.1734 106.785 22.7345 107.401 22.9447 108.184C23.498 110.25 23.9223 115.054 23.4077 117.753C23.1845 118.922 23.629 120.109 23.4077 121.452C23.0941 123.37 22.8064 125.039 23.048 126.905C23.1329 127.543 22.5187 127.769 22.3822 128.2V128.25C22.3994 128.743 22.4166 129.241 22.4338 129.743C22.2955 130.257 21.7145 130.557 21.7661 131.182C21.7846 131.234 21.8012 131.285 21.8178 131.337C22.1387 132.014 22.8839 132.134 22.9447 133.085C22.6652 133.559 22.3007 133.978 21.8694 134.319C22.0871 135.945 23.2915 140.26 22.3305 141.574C20.9786 141.835 18.4019 141.807 17.0979 142.397H13.7115C13.2854 142.571 12.8575 142.741 12.4204 142.911C11.7398 143.096 10.2919 142.954 9.85479 142.758L7.70048 142.809C6.13825 142.667 4.12045 143.224 2.82751 142.706C2.48629 142.31 2.14321 141.918 1.80199 141.524C1.82228 140.582 2.53977 139.156 3.23881 138.899C4.00794 138.618 5.60522 138.91 5.9575 138.283C4.73096 138.216 2.45309 138.409 1.49399 137.913C0.28404 137.303 -0.767294 135.577 0.724852 134.467C1.42389 133.945 3.19454 133.618 4.52069 133.847C4.83793 133.903 5.25847 134.154 5.59785 134.005C6.41493 133.635 10.3472 131.755 10.6774 131.23C10.9799 130.742 10.967 130.281 11.1902 129.687C11.3156 129.349 11.832 128.929 11.9574 128.607C12.1862 128.028 11.6679 127.312 11.9574 126.704C12.1991 126.334 12.4388 125.947 12.6768 125.571C12.804 125.255 13.1987 122.092 13.1895 122.074C12.0201 121.617 12.6473 118.69 12.4204 117.288C12.2605 116.043 12.192 114.787 12.2157 113.531V111.535C11.7398 109.112 11.0869 107.346 10.5225 104.95C9.56337 104.567 9.47668 104.405 9.34203 103.302C9.05304 103.282 8.77272 103.194 8.52312 103.047C8.48807 102.875 8.45302 102.703 8.41982 102.533C8.62824 102.287 8.89014 102.111 9.08565 101.863C8.86248 101.471 8.64115 101.075 8.41982 100.681C8.28333 99.9762 8.14684 99.2752 8.00851 98.5704L7.34267 96.6152C7.17176 94.8148 7.00083 93.0143 6.82992 91.2139C6.38172 88.7445 6.00361 86.5229 5.53881 84.1663C5.35437 83.2248 6.0036 82.8714 6.15485 82.2629C6.27658 81.7671 6.06448 81.2381 6.00177 80.9255C6.05341 80.0314 6.10443 79.1392 6.15485 78.2489C6.15485 78.0639 5.75462 75.9422 5.64211 75.5223C4.85454 75.4705 4.6037 75.1857 4.25694 74.6992C4.27354 74.5789 4.29015 74.4605 4.30859 74.3403C4.59971 74.123 4.93059 73.9652 5.28244 73.876V73.7225L3.23143 72.744C3.1097 71.9856 3.55052 70.9867 3.74419 70.2246C3.77739 69.7621 3.81244 69.2997 3.84748 68.8354C4.33073 67.1077 4.90065 65.1969 4.97443 62.9161C5.11645 58.6321 4.74387 54.1427 5.38573 50.1528C5.47058 48.1982 5.55604 46.243 5.64211 44.2871V41.8769C5.79151 40.1011 5.61259 37.6354 6.00177 35.9077C6.41123 34.0801 7.35559 32.6872 7.89785 31.1741C7.95134 30.8171 8.00113 30.4564 8.05278 30.0957C8.2987 29.325 8.53786 28.553 8.77026 27.7798C8.82928 27.0898 8.36817 26.6034 8.66881 26.0817C9.37892 25.8487 9.38078 24.6204 9.74597 24.0248L10.9264 22.7392C10.6239 21.7255 10.1886 18.6568 9.54124 18.161C8.60427 17.4378 6.88157 17.6949 6.3098 16.6165C5.76938 15.5991 6.51452 15.0571 6.66761 14.3523L6.46288 13.3738C6.64732 13.1759 6.71925 13.0631 7.07891 13.015C6.97193 12.6857 6.65654 12.5155 6.71002 12.1918C6.8502 11.8219 7.30579 11.746 7.32608 11.2669C7.34821 10.6898 6.46289 10.6084 6.40386 9.82597C6.85944 8.64952 8.48992 8.54223 9.17051 7.60625C9.4232 7.26404 9.15944 6.54818 9.32359 6.21892L10.0429 5.60109C10.5391 4.97772 10.7604 4.14163 11.3764 3.64589L12.0939 3.18345C12.3706 2.78205 12.1695 2.18088 12.4536 1.63889C12.5587 1.43727 13.8757 0.54568 14.1449 0.30151L16.2771 0Z" fill="white"/>
</g>
<defs>
<clipPath id="clip0_51_436">
<rect width="29" height="143" fill="white" transform="matrix(-1 0 0 1 29 0)"/>
</clipPath>
</defs>
</svg>
