<svg width="80" height="42" viewBox="0 0 80 42" fill="none" xmlns="http://www.w3.org/2000/svg">
<g clip-path="url(#clip0_11_389)">
<path d="M20.2711 15.7531C21.6069 14.3772 22.5865 13.2863 23.1936 12.4885C23.8089 11.6907 23.7522 11.0312 23.0236 10.4939C22.295 9.95661 21.4693 9.85077 20.5383 10.1683C19.6073 10.4858 18.4335 10.8847 17.0167 11.3569C15.6 11.8372 14.0133 12.3908 12.2566 13.0339C10.4998 13.669 8.75121 14.2958 7.01877 14.8901C5.28632 15.4926 3.85341 15.8508 2.72814 15.9648C2.35574 16.0055 2.04811 16.0543 1.79715 16.1276C1.86191 16.0462 1.92668 15.9566 1.99144 15.8589C2.66337 14.9145 3.6996 13.7422 5.09203 12.342C6.48446 10.9498 8.0388 9.58212 9.75505 8.24698C11.4713 6.91183 13.058 5.80464 14.5233 4.9254C15.9886 4.04616 17.2272 3.49257 18.2554 3.24833C19.2754 3.0041 19.9959 2.91455 20.4007 2.97968C20.425 2.97968 20.4492 2.97968 20.4816 2.97968C20.4654 3.07737 20.4816 3.1832 20.5221 3.28904C20.6031 3.50071 20.5626 3.84263 20.4088 4.32296C20.7569 5.78836 21.5017 6.03259 22.6593 5.05566C22.8293 4.58348 23.0074 4.22527 23.1936 3.98103C23.3798 3.7368 23.4446 3.27276 23.3798 2.58076C23.6794 2.15742 23.137 0.626895 22.5217 0.162851C21.4045 -0.154652 20.8216 0.00817019 20.2064 0.30125C19.5102 0.455931 18.652 0.862987 17.632 1.53056C16.612 2.19813 15.4057 3.05295 14.0052 4.10315C13.4223 4.54277 12.8152 5.00681 12.1837 5.50342C11.7627 5.78022 11.3337 6.06516 10.8884 6.36638C7.94166 8.36909 5.43204 10.3637 3.39197 12.3257C1.65953 14.0027 0.720446 15.3623 0.599013 16.4044C0.380433 16.9498 0.453293 17.4709 0.817592 17.943C1.40047 18.692 2.21812 18.7002 3.27054 17.9675C3.39197 17.8779 3.5215 17.7965 3.65912 17.7069C3.8858 17.6418 4.12057 17.5685 4.36343 17.4871C6.50065 16.7463 8.7674 15.8589 11.1637 14.8494C13.479 13.8643 15.5272 13.0421 17.3082 12.3582C18.4011 11.9349 19.2916 11.6337 19.9878 11.4383C20.2145 11.4057 20.425 11.3813 20.6193 11.365C20.7407 11.3569 20.8459 11.3487 20.935 11.3406C20.8864 11.4464 20.8459 11.5848 20.8216 11.7558C20.765 12.1384 20.4816 12.7816 19.9959 13.6771C19.6154 14.133 19.1702 14.654 18.652 15.2483C17.1948 16.9417 15.4057 19.0339 13.2604 21.5496C11.0341 24.1628 8.9536 26.7843 7.03496 29.3894C5.05155 32.0842 3.57817 34.2741 2.63909 35.9186C2.6148 35.9756 2.59051 36.0245 2.56623 36.0814C1.53809 37.3433 0.720446 38.2307 0.121376 38.7192C-0.259113 39.8426 0.0566122 40.0869 1.05236 39.4519C1.41666 38.6866 2.16145 37.5631 3.31101 36.0814C4.45248 34.5998 5.66681 33.0367 6.93781 31.3759C8.2169 29.7232 9.71458 27.8589 11.4551 25.7992C13.1876 23.7395 14.7581 21.8915 16.1424 20.2633C17.5349 18.635 18.8949 17.1289 20.2388 15.7531H20.2711ZM0.744732 16.1683C1.00379 15.4112 1.96716 14.2144 3.63484 12.6025C4.99488 11.2836 6.5897 9.95661 8.39501 8.63775C7.09163 9.75308 5.8692 10.8603 4.73583 11.9675C3.31101 13.3596 2.16145 14.5156 1.28713 15.4437C1.05236 15.688 0.874261 15.9322 0.744732 16.1683ZM11.0422 14.5238C9.43123 15.1832 7.88499 15.7449 6.38731 16.209C6.70304 16.0543 7.02686 15.8996 7.36687 15.7449C9.02646 14.9797 10.7346 14.2795 12.4752 13.6364C14.0295 13.0665 15.4543 12.5943 16.7577 12.2117C15.0819 12.8711 13.1795 13.6445 11.0341 14.5238H11.0422ZM11.1475 25.5224C9.44742 27.6147 7.94166 29.479 6.62209 31.0991C5.82063 32.0842 5.05155 33.0448 4.29867 33.9648C5.09203 32.7029 6.07968 31.2538 7.26973 29.6255C9.17218 27.0122 11.2446 24.3989 13.4871 21.8101C15.4138 19.5713 17.0815 17.7151 18.5063 16.2008C17.6968 17.422 16.782 18.6595 15.7538 19.8969C14.3857 21.5414 12.8556 23.4139 11.1556 25.5143" fill="white"/>
<path d="M29.5729 28.8603C29.2734 27.7612 28.982 26.3528 28.6986 24.635C28.4153 22.9173 28.1724 20.9797 27.9619 18.8386C27.8324 17.5523 27.7353 16.2822 27.6543 15.0285C28.2777 14.5645 28.8767 14.133 29.4272 13.7422C30.4149 13.0421 31.2244 12.4966 31.8721 12.1221C32.5197 11.7477 33.0621 11.4627 33.5074 11.2755C33.9526 11.0882 34.2764 10.8196 34.495 10.4695C34.0498 9.40301 33.3212 9.01224 32.3254 9.28903C32.293 9.46 32.2202 9.68795 32.1149 9.98917C32.0097 10.2823 31.7021 10.7056 31.184 11.251C30.6658 11.7965 29.9453 12.4478 29.0063 13.213C28.5691 13.5713 28.0996 13.9376 27.5976 14.3284C27.5653 13.7341 27.5329 13.1398 27.5086 12.5536C27.4276 10.4939 27.4357 8.67845 27.541 7.09093C27.6462 5.50342 27.7272 4.3718 27.7838 3.69609C27.8405 3.01224 27.8729 2.44236 27.881 1.97017C27.2171 0.830417 26.5533 0.830417 25.8895 1.97017C25.8895 2.15742 25.8976 2.36095 25.9138 2.58076C25.8166 2.30396 25.8328 1.9946 25.7033 1.73408C25.7195 2.06787 25.7357 2.40979 25.7519 2.74358C25.7357 2.74358 25.7195 2.74358 25.7033 2.74358C25.6304 2.43422 25.5657 2.133 25.5009 1.82363H25.4604C25.4604 1.82363 25.4442 1.86434 25.4442 1.88062C25.4442 2.10043 25.5171 2.3121 25.509 2.54819C25.4928 2.77614 25.5414 3.00409 25.5819 3.23205C25.5576 3.30532 25.5333 3.39487 25.509 3.49256C25.5252 3.92404 25.6628 5.14521 25.9219 7.1642C25.9381 7.29446 25.9542 7.42472 25.9704 7.55498C25.9785 7.68523 25.9947 7.81549 26.0028 7.94575H26.019C26.27 9.81821 26.5695 12.0652 26.9176 14.6947C26.9176 14.7436 26.9338 14.7843 26.9338 14.8331C26.5614 15.1181 26.1647 15.4111 25.76 15.7124C24.5294 16.6242 23.2908 17.5767 22.0441 18.5618C20.8055 19.5468 19.4454 20.6133 17.9802 21.7531C16.5149 22.901 15.4786 23.7884 14.8796 24.4234C14.2805 25.0584 13.4871 25.7585 12.4995 26.5075C11.5118 28.2171 11.8599 28.5672 13.5438 27.5658C14.2805 26.5563 14.9848 25.7829 15.6486 25.2375C16.3125 24.692 17.292 23.7558 18.5873 22.4288C19.8826 21.1018 21.1536 19.962 22.4003 18.9932C23.647 18.0326 24.8856 17.0882 26.1081 16.1683C26.4238 15.9322 26.7314 15.7042 27.031 15.4763C27.2495 17.0719 27.4843 18.6757 27.7434 20.304C27.9296 21.8833 28.1077 23.3487 28.2939 24.6839C28.5367 26.4179 28.7472 27.8589 28.9253 28.9987C29.1034 30.1384 29.1844 30.9851 29.152 31.5387C29.1277 32.0353 29.3058 32.19 29.6863 32.0109C29.6458 32.1086 29.7591 32.3121 30.0425 32.6215C30.6335 32.2877 30.7792 31.8562 30.4715 31.3107C30.1639 30.7734 29.8644 29.9512 29.5649 28.8521L29.5729 28.8603ZM26.4319 7.97831C26.4319 7.97831 26.5128 7.98646 26.5533 7.9946C26.7152 9.35416 26.8529 10.8766 26.9905 12.5618C27.031 13.0502 27.0714 13.5468 27.1119 14.0434C26.8286 11.6907 26.6019 9.67167 26.44 7.97831" fill="white"/>
<path d="M38.1543 10.9416C38.5266 9.99727 38.2271 9.68791 37.2476 10.0136C36.8185 10.5916 36.3813 11.3487 35.9442 12.3012C35.507 13.2537 35.0132 14.4342 34.4627 15.8507C33.9122 17.2754 33.4022 18.749 32.9084 20.2795C32.876 20.3772 32.8517 20.4667 32.8193 20.5563C32.8598 19.6608 32.8598 18.8874 32.8355 18.2361C32.795 17.2184 32.8679 16.0868 33.046 14.8331C32.5521 12.9199 32.0583 12.9199 31.5726 14.8494C31.7507 16.095 31.8316 17.2184 31.8155 18.2361C31.7993 19.2456 31.8155 20.5482 31.8559 22.1357C31.864 22.5183 31.8721 22.8684 31.8721 23.194C31.7426 23.5278 31.605 23.8453 31.4754 24.1465C31.0059 25.1967 31.103 25.905 31.7507 26.2795C32.2364 26.5563 32.5279 26.5156 32.6169 26.1655C33.1269 25.9294 33.3374 25.327 33.2403 24.3663C33.135 23.308 33.2565 22.0054 33.6127 20.4586C33.9689 18.9118 34.4141 17.4464 34.9727 16.0461C35.5232 14.654 36.0656 13.5387 36.5999 12.7083C37.1342 11.8779 37.6442 11.2836 38.1462 10.9254" fill="white"/>
<path d="M37.0127 21.9565C37.0532 22.8276 37.3284 23.5359 37.8546 24.0651C38.3727 24.5942 38.9718 24.6431 39.6437 24.1953C40.3157 23.7476 40.7528 23.0312 40.9552 22.0298C41.1657 21.0284 41.36 19.8154 41.5462 18.3907C41.6271 17.7394 41.7162 17.08 41.7972 16.4124C41.8943 16.9579 42.0076 17.4545 42.1372 17.9104C42.38 18.7652 42.7038 19.4572 43.1167 20.0027C43.5296 20.5481 44.0153 20.8086 44.5739 20.7923C45.2054 19.8317 45.1406 19.0827 44.3715 18.5535C44.3068 18.6512 44.161 18.6675 43.9344 18.6105C43.7077 18.5535 43.4244 18.1709 43.0843 17.4789C42.7443 16.7869 42.5015 15.867 42.3476 14.7354C42.2748 14.1655 42.2343 13.5956 42.2262 13.0094C42.3719 11.9104 42.5015 10.9172 42.6229 10.0298C42.6391 9.89954 42.6634 9.76928 42.6796 9.64716C42.7443 9.60646 42.7929 9.56575 42.8253 9.52504C43.0924 9.56575 43.392 9.39479 43.7239 8.99587C43.8291 8.83305 43.8696 8.6051 43.8615 8.30388C43.8534 8.08407 43.651 7.84798 43.2705 7.60374C43.2463 7.53047 43.2058 7.46534 43.1572 7.40836C43.3515 6.80591 43.0115 6.52097 42.1453 6.56168C41.2709 6.60239 40.8985 7.06643 41.02 7.97009C41.0281 8.0515 41.0443 8.14105 41.0524 8.23061C40.6962 8.90632 40.3157 9.76114 39.919 10.7869C39.4575 11.9674 38.9799 13.27 38.4942 14.7109C38.0003 16.1438 37.6199 17.4952 37.3608 18.7489C37.0937 20.0027 36.9803 21.0691 37.0208 21.9484L37.0127 21.9565ZM41.4814 14.0759C41.4005 14.6295 41.3114 15.175 41.2143 15.7042C41.2305 15.5088 41.2467 15.3052 41.2628 15.0936C41.3114 14.54 41.3519 13.9212 41.4005 13.2374C41.4248 13.5223 41.449 13.7991 41.4733 14.0759H41.4814ZM38.0084 18.8466C38.2108 17.6336 38.5832 16.331 39.1256 14.9552C39.668 13.5712 40.2914 12.3989 40.9957 11.4382C41.0847 11.3079 41.1819 11.194 41.2628 11.08C41.2628 11.1207 41.2628 11.1533 41.2628 11.2021C41.2709 11.4301 41.2871 11.658 41.2952 11.8941C41.2143 13.1316 41.1252 14.2062 41.0362 15.1017C40.9309 16.1031 40.8419 16.8683 40.7609 17.3894C40.68 17.9104 40.6152 18.2767 40.5585 18.4884C40.5423 18.5454 40.5423 18.5942 40.5585 18.6431C40.2428 19.791 39.8947 20.6865 39.498 21.3134C39.0609 22.0135 38.8099 22.4043 38.7532 22.4857C38.6885 22.5671 38.5994 22.616 38.478 22.6322C38.3566 22.6567 38.1946 22.3392 38.0003 21.6797C37.8061 21.0203 37.8061 20.0841 38.0084 18.871" fill="white"/>
<path d="M48.4518 17.8128C49.9495 15.053 51.3014 12.6432 52.5077 10.5835C53.7139 8.5238 54.7825 7.00141 55.7054 6.0082C56.6283 5.02312 56.7902 4.28228 56.183 3.79381C55.8349 3.51702 55.503 3.45189 55.1711 3.59029C54.7582 3.48445 54.4425 3.82638 54.1996 4.60793C53.6896 5.36505 53.0905 6.31756 52.4186 7.44103C51.6414 8.73547 50.8157 10.3474 49.9333 12.2687C49.0509 14.19 48.217 16.095 47.4398 17.9838C47.0755 18.8712 46.6951 19.6771 46.3227 20.4017C46.4036 19.7097 46.4846 19.0014 46.5574 18.2769C46.7113 16.787 46.8327 15.3868 46.9136 14.076C47.0432 13.3352 47.1889 12.6106 47.3508 11.9105C47.6746 10.4532 47.9337 9.36234 48.1199 8.62964C48.3061 7.89694 48.4599 7.30263 48.5813 6.84673C48.1684 5.60928 47.5208 5.49531 46.6303 6.49666C46.5251 6.96071 46.4684 7.57943 46.4441 8.36098C46.4279 9.14253 46.3793 10.2741 46.2984 11.7721C46.2174 13.2619 46.0798 14.8169 45.9017 16.4288C45.7155 18.0489 45.5212 19.4899 45.3026 20.7518C45.1812 21.4845 45.0517 22.1276 44.914 22.7056C44.2583 23.6663 44.145 24.3094 44.5578 24.6513C44.3716 25.0014 44.1935 25.3515 44.0073 25.6934C42.6635 28.2579 41.4573 30.5618 40.3967 32.5889C39.3362 34.6242 38.5024 36.2117 37.879 37.3596C37.2557 38.4994 36.778 39.4763 36.4299 40.266C36.4299 41.3732 36.7376 41.4709 37.3609 40.5672C37.5309 39.7531 37.8628 38.7518 38.3486 37.5632C38.8424 36.3745 39.6034 34.7626 40.6315 32.7111C41.6677 30.6595 42.8497 28.3556 44.1854 25.7911C44.3474 25.4817 44.5093 25.1642 44.6712 24.8549C44.8169 25.0177 45.0436 25.1235 45.3674 25.1642C46.1365 25.2619 46.5817 24.5944 46.7032 23.1778C46.7922 22.1439 47.027 20.9797 47.4156 19.6853C47.7475 19.0584 48.0875 18.4315 48.4356 17.7965L48.4518 17.8128ZM47.9175 18.1629C48.6056 16.2416 49.3828 14.3284 50.2571 12.4153C51.1314 10.5021 51.9814 8.93086 52.8072 7.69341C53.131 7.21308 53.4386 6.76532 53.7382 6.37455C53.3901 7.46546 52.8315 8.77618 52.0462 10.3148C50.9614 12.4478 49.6904 14.9064 48.2251 17.6826C48.0956 17.9268 47.9661 18.171 47.8365 18.4153C47.8689 18.3338 47.8932 18.2524 47.9175 18.1629ZM46.0798 20.825C46.015 20.939 45.9584 21.053 45.8936 21.1588C45.9098 21.053 45.9179 20.9471 45.9341 20.8413C46.1041 19.555 46.2984 18.1059 46.517 16.494V16.4288C46.4765 17.0231 46.4279 17.6256 46.3631 18.2524C46.2741 19.1317 46.1769 19.9865 46.0798 20.8169" fill="white"/>
<path d="M73.9121 19.5143C74.0579 19.0421 74.0741 18.5944 73.9688 18.1629C74.2684 17.5767 74.5841 16.9661 74.9241 16.3474C75.8551 14.6703 76.5513 13.4003 77.0046 12.5455C77.4661 11.6907 78.0651 10.8277 78.8018 9.95663C79.3766 8.3854 79.0771 8.2063 77.9032 9.40304C77.4256 10.437 76.9399 11.3813 76.4622 12.2361C75.9846 13.091 75.3289 14.3935 74.5112 16.1439C74.2603 16.6812 74.0174 17.2022 73.7826 17.7151C73.5155 17.1778 73.0783 17.0638 72.4873 17.3732C71.8883 17.6907 71.2892 18.1547 70.6901 18.7735C70.0911 19.3922 69.4839 20.076 68.8686 20.825C68.2534 21.574 67.7191 22.2741 67.2657 22.9336C66.8205 23.593 66.4643 24.1792 66.1971 24.692C65.93 25.2049 66.0352 25.6771 66.4966 26.1086C66.9581 26.5401 67.4519 26.5645 67.9781 26.1737C68.5043 25.7911 69.0548 25.3922 69.6377 25.0014C70.1801 24.6269 70.6739 24.342 71.103 24.1222C71.0463 24.2769 70.9897 24.4315 70.933 24.5781C70.8035 24.9363 70.682 25.2538 70.5687 25.5469C70.4392 25.726 70.3096 25.8969 70.1882 26.0435C69.8644 26.418 69.7753 26.7436 69.9211 27.0204C69.7591 27.4356 69.9534 27.6554 70.4958 27.6717C71.103 27.6961 71.443 27.3623 71.5402 26.6866C71.6292 26.0028 71.8397 25.2049 72.1635 24.285C72.4873 23.365 72.8112 22.4939 73.1269 21.688C73.4507 20.882 73.7098 20.1574 73.9041 19.5306L73.9121 19.5143ZM71.3782 23.4139C71.0787 23.5197 71.8802 22.4777 71.5078 22.8115C71.1273 23.129 69.7672 23.8535 69.152 24.171C68.5448 24.4885 68.0024 24.6758 67.5167 24.7409C67.371 24.7572 67.2495 24.7897 67.1524 24.8223C67.2252 24.4315 67.4438 23.9186 67.8081 23.2836C68.1886 22.6242 68.6905 21.9404 69.322 21.2484C69.9453 20.5564 70.593 19.9783 71.2568 19.5387C71.9206 19.0991 72.4064 18.8386 72.7221 18.7735C73.0378 18.7002 73.1997 18.6513 73.2078 18.6106C73.2078 18.5781 73.1916 18.7653 73.135 19.1561C72.8678 19.7667 72.6088 20.3528 72.374 20.9146C71.9935 21.8345 71.6535 22.6649 71.3621 23.4139H71.3782ZM72.5521 21.4844C72.3092 22.1683 72.0097 22.8684 71.6616 23.6011C71.9287 22.8277 72.2607 21.9729 72.6412 21.0367C72.714 20.8576 72.7869 20.6785 72.8678 20.4994C72.7788 20.8087 72.6816 21.1344 72.5602 21.4844" fill="white"/>
<path d="M79.5224 20.6051C78.9638 20.3853 78.4295 20.3609 77.9194 20.5481C77.709 20.6214 77.4985 20.6865 77.2799 20.7517C77.5309 20.5888 77.7494 20.4423 77.9194 20.2958C78.2514 20.019 78.6885 19.7666 79.2471 19.5386C79.9595 18.6594 79.749 18.3175 78.6238 18.521C78.1542 18.8792 77.7252 19.1723 77.3366 19.384C76.948 19.5956 76.4784 19.9376 75.9279 20.4016C75.3694 20.8656 74.9079 21.2076 74.5436 21.4192C74.4708 21.4599 74.4141 21.5088 74.3655 21.5658C74.3493 21.5658 74.3412 21.5739 74.3331 21.5821C73.8393 22.4125 73.8555 23.0556 74.1226 23.3161C74.4627 23.6418 74.9565 23.5848 75.6203 23.1533C76.2842 22.7218 77.0694 22.2008 77.9761 21.5821C78.0004 21.5658 78.0247 21.5495 78.049 21.5332C78.0976 21.5169 78.1461 21.4925 78.2028 21.4844C78.2757 21.4599 78.3404 21.4437 78.3971 21.4192V21.4355C78.2837 21.5088 78.1785 21.5739 78.0733 21.6472C77.4823 22.2659 76.8589 22.9253 76.1789 23.6499C75.1508 24.7408 74.6084 25.6852 73.9688 26.5644C73.5479 27.3378 73.224 27.6065 73.5641 27.2971C73.3536 27.5088 73.1512 27.7123 72.9569 27.9077C72.3578 28.7462 72.4631 28.8439 73.2645 28.2008C73.8879 27.5088 74.6327 26.7354 75.4908 25.8806C76.3489 25.0339 77.1666 24.2605 77.9437 23.5603C78.7209 22.8602 79.3281 22.2496 79.7409 21.7286C80.1619 21.1994 80.0891 20.8249 79.5386 20.6051H79.5224ZM74.1226 22.9335C74.066 22.966 74.1793 22.7869 74.4384 22.4043C74.4546 22.4287 74.4708 22.4613 74.4869 22.4857C74.5355 22.5671 74.5922 22.6323 74.6408 22.6892C74.3493 22.8114 74.1712 22.8846 74.1145 22.9253L74.1226 22.9335ZM77.3609 23.0556C76.7537 23.886 76.0332 24.7327 75.1993 25.5956C74.7217 26.1004 74.2684 26.5644 73.8474 26.9959C73.896 26.9471 73.9445 26.8901 74.0012 26.8249C74.6003 25.9457 75.426 24.9688 76.4542 23.9104C76.7861 23.5685 77.1261 23.2428 77.4499 22.9335C77.4175 22.9742 77.3932 23.0149 77.3609 23.0556Z" fill="white"/>
<path d="M65.0718 14.8493C64.9585 15.004 64.829 15.1506 64.6913 15.2808C64.5537 15.4111 64.3999 15.5902 64.2218 15.8263C64.238 16.4124 64.5456 16.6648 65.1528 16.5671C65.3633 16.3636 65.5171 16.1926 65.6385 16.0542C65.7519 15.9158 65.8814 15.7856 66.0271 15.6553C66.0919 14.9715 65.7761 14.7028 65.0718 14.8493Z" fill="white"/>
<path d="M64.5457 25.7341C64.91 24.2279 65.25 22.9498 65.5657 21.8996C65.9138 20.7435 66.2214 19.7992 66.4805 19.0665C66.27 17.6988 65.8086 17.4464 65.0962 18.2931C65.0881 18.2198 65.0719 18.1465 65.0557 18.0814C64.9828 17.8372 64.9504 17.829 64.9504 18.057C64.8938 18.5943 64.8533 18.6024 64.8128 18.0814C64.8128 17.8535 64.7804 17.8616 64.6914 18.114C64.6104 18.3663 64.5699 18.7001 64.578 19.1316C64.578 19.4735 64.578 19.9539 64.578 20.5807C64.5295 20.9145 64.4809 21.2646 64.4161 21.6391C64.2461 22.7137 64.0437 24.0163 63.7928 25.5305C63.7847 25.5305 63.7604 25.734 63.6875 26.133C63.4042 27.8263 63.1532 29.3243 62.9427 30.6269C62.9427 32.1085 63.1613 32.1411 63.5823 30.7246C63.7442 29.4545 64.0114 28.0054 64.3838 26.3935C64.4566 26.0271 64.5052 25.8643 64.5376 25.7341" fill="white"/>
<path d="M68.7634 8.18997C68.7634 8.18997 68.7067 8.21439 68.6744 8.22253C68.5772 8.2551 68.4882 8.28766 68.3829 8.32836C67.1686 9.346 65.9785 10.2252 64.8209 10.9742C64.8047 10.9742 64.7885 10.9905 64.7804 10.9987C64.6833 11.0638 64.578 11.1289 64.4728 11.2022C63.898 11.5767 63.218 12.0407 62.4408 12.5943C62.4084 12.6187 62.3679 12.6432 62.3356 12.6676C61.7122 13.1072 61.016 13.6038 60.255 14.1493C60.1255 14.247 59.996 14.3365 59.8583 14.4342C59.7126 14.54 59.575 14.6377 59.4293 14.7436C59.0002 15.0529 58.5873 15.3541 58.1826 15.6472C58.1826 15.6472 58.1826 15.6309 58.1826 15.6228C58.7897 13.8399 59.7774 10.6974 60.4736 8.56446C60.506 8.46676 60.5384 8.36093 60.5707 8.26324C60.6031 8.16554 60.6355 8.07599 60.6598 7.98644C60.7003 7.85618 60.7407 7.73406 60.7812 7.62009C60.8298 7.46541 60.8784 7.32701 60.9269 7.19675C60.9593 7.09906 60.9998 6.99322 61.0322 6.90367C61.1131 6.66758 61.1779 6.49662 61.2265 6.39892C61.3236 6.17911 61.4127 5.9593 61.4855 5.75577C61.6474 5.27545 61.7284 4.84397 61.7284 4.46134V4.44505C61.7284 4.44505 61.7284 4.40435 61.7284 4.37993C61.7284 4.29851 61.7284 4.22524 61.7122 4.14383C61.7041 4.06242 61.6879 3.99729 61.6798 3.94031C61.6555 3.82633 61.6393 3.73678 61.607 3.68793C61.5908 3.66351 61.5827 3.64723 61.5746 3.63908C61.526 3.60652 61.4693 3.7205 61.4127 3.97287C61.3722 4.07056 61.3398 4.15197 61.3155 4.23339C61.3155 4.24967 61.2993 4.26595 61.2993 4.28223C61.2346 4.43691 61.1779 4.55089 61.1374 4.64044C61.1374 4.64044 61.1374 4.64858 61.1374 4.65672C61.1131 4.69743 61.0969 4.72999 61.0727 4.75442C61.0484 4.78698 61.0241 4.79512 61.0079 4.79512C60.9836 4.79512 60.9674 4.74628 60.9593 4.65672C60.9593 4.64858 60.9593 4.6323 60.9593 4.62416C60.9593 4.51832 60.9593 4.3555 60.9836 4.13569C60.9917 4.06242 60.9998 3.98101 61.016 3.89146C61.0322 3.82633 61.0403 3.77748 61.0484 3.72864C61.0484 3.67979 61.0646 3.63908 61.0646 3.61466C61.0646 3.5821 61.0646 3.55767 61.0565 3.54139C61.0565 3.52511 61.0403 3.51697 61.0241 3.51697C60.9674 3.51697 60.846 3.6228 60.6598 3.85889C60.2955 4.33108 60.0202 5.03936 59.834 5.97558C59.8179 6.04885 59.7936 6.15469 59.7612 6.30123C59.7288 6.43149 59.6883 6.58617 59.6478 6.77341C59.5912 7.0095 59.5183 7.2863 59.4374 7.58752C59.3807 7.79919 59.324 8.019 59.2593 8.2551C59.1864 8.54818 59.1054 8.8494 59.0164 9.17504C59.0407 9.05292 59.065 8.93081 59.0893 8.80055C59.1297 8.6133 59.1702 8.4342 59.2107 8.2551C59.2593 8.03529 59.3078 7.81547 59.3564 7.59566C59.4374 7.23746 59.5264 6.87925 59.6155 6.52918C59.8017 5.78834 59.9636 5.2266 60.0769 4.84397C60.1336 4.65672 60.1822 4.48576 60.2307 4.34736C60.2712 4.20896 60.3036 4.09499 60.3279 4.01358C60.3279 3.99729 60.3279 3.98101 60.3441 3.96473C60.3441 3.96473 60.3441 3.94845 60.3441 3.94031C60.3441 3.92402 60.3522 3.90774 60.3602 3.89146C60.3441 3.90774 60.3279 3.91588 60.3117 3.93216C60.2955 3.94845 60.2712 3.97287 60.255 3.98101C60.166 4.02986 60.1174 3.98101 60.1093 3.85075C60.1093 3.86704 60.0931 3.89146 60.085 3.92402C60.0445 4.04614 59.996 4.24153 59.9393 4.4939C59.9231 4.57531 59.8988 4.67301 59.8745 4.7707C59.8502 4.86839 59.8259 4.98237 59.8017 5.10448C59.7288 5.41385 59.6398 5.79648 59.5426 6.25238C59.5264 6.33379 59.5102 6.40706 59.4859 6.49661C59.3159 7.2456 59.154 8.01086 59.0002 8.79241C58.8869 9.36229 58.7897 9.89146 58.7007 10.3799C58.6521 10.5753 58.5954 10.7626 58.5469 10.9579C58.4497 11.2592 58.3526 11.5767 58.2473 11.9023C58.2068 12.0326 58.1664 12.1628 58.1178 12.2931C58.0773 12.4233 58.0368 12.5617 57.9883 12.7001C57.9235 12.9118 57.8506 13.1235 57.7778 13.3433C57.5187 14.1167 57.2516 14.9064 56.9763 15.7042C56.9196 15.867 56.863 16.038 56.8063 16.2008C56.7335 16.4125 56.6606 16.6242 56.5877 16.8358C56.1911 17.1289 55.8025 17.4057 55.4301 17.6825C55.2196 17.8372 55.0091 17.9919 54.8067 18.1384C54.6448 18.2524 54.491 18.3664 54.3372 18.4803C54.3048 18.4966 54.2805 18.521 54.2562 18.5373C54.2076 18.5699 54.1591 18.6024 54.1186 18.635C52.5804 19.7585 51.3256 20.6703 50.3542 21.3867C50.1032 21.5658 49.8684 21.7368 49.6418 21.8915C49.4151 22.0461 49.2046 22.1845 49.0103 22.3067C48.9132 22.3718 48.816 22.4288 48.727 22.4776C48.4517 22.6404 48.2089 22.7707 47.9903 22.8603C47.6341 23.0149 47.4398 23.2754 47.4236 23.6337C47.4155 23.8535 47.4641 24.1058 47.5693 24.3989C47.6746 24.692 47.8203 24.92 47.9903 25.0746C48.2736 25.3433 48.646 25.4328 49.0994 25.3352C49.2046 25.3107 49.3099 25.2944 49.4232 25.27C49.5932 25.2375 49.7875 25.213 49.9899 25.1805C50.4513 25.1072 50.9856 25.0502 51.5847 24.9932C51.7628 24.9769 51.9409 24.9607 52.1352 24.9444C52.2809 24.9362 52.4266 24.9281 52.5804 24.9118C52.8881 24.8955 53.1957 24.8792 53.5195 24.8711C53.5114 24.8955 53.4952 24.92 53.4871 24.9525C53.3495 25.2863 53.22 25.6119 53.0986 25.9132C53.0743 25.9783 53.0419 26.0516 53.0176 26.1167C52.9528 26.2714 52.8881 26.4342 52.8233 26.5889C52.7747 26.6947 52.7262 26.8087 52.6695 26.9308C52.6371 26.9959 52.6047 27.0611 52.5724 27.1425C52.4752 27.3541 52.3619 27.5821 52.2404 27.8182C52.119 28.0543 51.9895 28.2985 51.8519 28.559C51.779 28.6893 51.7142 28.8114 51.6414 28.9335C51.5604 29.0801 51.4714 29.2266 51.3823 29.3731H51.3904C51.2528 29.6092 51.1152 29.8453 50.9775 30.0733C50.678 30.5617 50.4351 30.9362 50.2651 31.1805C50.087 31.4328 49.9656 31.6119 49.8927 31.7259C49.8927 31.7341 49.8765 31.7422 49.8765 31.7503C49.8684 31.7666 49.8523 31.7829 49.8442 31.7992C50.0223 31.7096 50.0951 31.7259 50.0627 31.8562C50.0708 31.8399 50.087 31.8236 50.0951 31.8073C50.1113 31.7829 50.1356 31.7503 50.1599 31.7096C50.2085 31.6364 50.2651 31.5387 50.3299 31.4328C50.3623 31.3759 50.4027 31.3189 50.4351 31.2456C50.4594 31.2049 50.4837 31.1642 50.508 31.1235C50.6132 30.9444 50.7347 30.7246 50.8885 30.4559C50.9532 30.3501 51.018 30.228 51.0909 30.1058C51.3742 29.6092 51.6576 29.0963 51.9328 28.5753C51.9652 28.5102 51.9976 28.4451 52.0299 28.3881C51.9328 28.5916 51.8357 28.8033 51.7304 29.0149C51.6576 29.1615 51.5928 29.2999 51.5199 29.4464C51.2042 30.0814 50.8885 30.6757 50.6294 31.1398C50.5161 31.3433 50.4108 31.5143 50.3218 31.6608C50.2894 31.7096 50.2651 31.7503 50.2408 31.7829C50.2246 31.8318 50.2166 31.8806 50.2085 31.9213C50.1923 32.0109 50.1842 32.076 50.1761 32.133C50.1761 32.2388 50.1923 32.2877 50.2408 32.3039C50.2408 32.3039 50.2651 32.3039 50.2813 32.3039C50.257 32.3854 50.2327 32.483 50.2085 32.5807C50.2894 32.6459 50.3623 32.7029 50.4351 32.7436C50.5728 32.8331 50.6942 32.8738 50.7994 32.8738C50.9371 32.8738 51.0504 32.8168 51.1556 32.7029C51.1799 32.6784 51.2042 32.6622 51.2204 32.6296C51.3014 32.5238 51.3823 32.3772 51.4633 32.1981C51.528 32.0679 51.5928 31.9213 51.6495 31.7829C51.6657 31.7503 51.6818 31.7178 51.6899 31.6852C51.7628 31.5224 51.8357 31.3596 51.9166 31.1886C51.9166 31.1723 51.9328 31.156 51.9409 31.1398C51.9409 31.1398 51.9733 31.0746 51.9895 31.0421C52.03 30.9444 52.0785 30.8467 52.1271 30.7408V30.7246C52.289 30.3908 52.4428 30.0407 52.6128 29.6662C52.9447 28.9254 53.3171 28.0787 53.7219 27.1181C53.7462 27.0692 53.7705 27.0122 53.7867 26.9552C53.9 26.6784 54.0134 26.4098 54.1348 26.1167C54.2238 25.9132 54.3048 25.7015 54.3938 25.4898C54.4829 25.2782 54.5639 25.0665 54.6529 24.8467C54.8067 24.8467 54.9605 24.8548 55.1143 24.863C55.422 24.8711 55.7377 24.8874 56.0615 24.9037C56.2234 24.9037 56.3853 24.92 56.5473 24.9281C56.8387 24.9444 57.1139 24.9688 57.4054 24.9932C58.7492 25.1072 60.0526 25.2863 61.2993 25.5305C61.7851 25.6201 62.2303 25.7259 62.6513 25.8399C62.7889 25.8725 62.9265 25.9132 63.0561 25.9457C63.1937 25.9864 63.3313 26.0271 63.4689 26.0679C63.5094 26.0841 63.5985 26.1167 63.6956 26.1493C63.7361 26.1655 63.7766 26.1818 63.8251 26.1981C63.8737 26.2144 63.9304 26.2307 63.979 26.2551C64.0518 26.2795 64.1247 26.3039 64.1732 26.3284C64.2299 26.3446 64.2947 26.3691 64.3675 26.4016C64.4161 26.4179 64.4728 26.4423 64.5214 26.4586C64.5375 26.4668 64.5618 26.4749 64.5861 26.483C64.6023 26.4912 64.6185 26.4993 64.6428 26.5075C64.748 26.5482 64.8614 26.597 64.9585 26.6459C65.0718 26.7029 65.1852 26.7598 65.2904 26.8087C65.5009 26.9227 65.6871 27.0285 65.849 27.1425C66.1 27.3053 66.3024 27.4681 66.4562 27.6228C66.5614 27.7286 66.6424 27.8345 66.6991 27.9322C66.8205 28.1357 66.9014 28.3148 66.95 28.4695C66.9743 28.5427 66.9824 28.616 66.9905 28.6811C66.9905 28.7463 66.9905 28.8033 66.9743 28.8521C66.9176 29.0475 66.8933 29.2429 66.9095 29.4383C67.4357 29.7232 67.9377 29.8046 68.4153 29.6906H68.4477C68.4882 29.6744 68.5367 29.6662 68.5772 29.6499C68.6096 29.6418 68.6339 29.6255 68.6663 29.6092C68.8444 29.536 69.0144 29.4464 69.1844 29.3162C69.2815 29.2429 69.3787 29.1533 69.4758 29.0556C69.4515 28.9498 69.403 28.8114 69.322 28.6649C69.2491 28.5102 69.1439 28.3392 69.0063 28.152C68.9091 28.0054 68.7796 27.867 68.6339 27.7286C68.561 27.6635 68.4963 27.5984 68.4153 27.5333C68.3343 27.46 68.2372 27.3949 68.1401 27.3216C68.0105 27.232 67.8729 27.1425 67.7191 27.0529C67.12 26.7029 66.3105 26.3528 65.2742 25.9864C65.1852 25.9539 65.088 25.9295 64.999 25.8969C64.9018 25.8643 64.8047 25.8399 64.7076 25.8073C64.7076 25.8073 64.5699 25.7585 64.2299 25.6608C64.1004 25.6201 63.9951 25.5957 63.9142 25.5712C63.8575 25.555 63.8089 25.5468 63.7766 25.5387C63.728 25.5224 63.6956 25.5224 63.6956 25.5224C63.0075 25.3514 62.2546 25.1886 61.4208 25.0339C59.8826 24.7571 58.2878 24.5292 56.6282 24.3419H56.612C56.612 24.3419 56.5634 24.3419 56.5392 24.3338C56.272 24.3012 56.021 24.2768 55.762 24.2442C55.4867 24.2117 55.2115 24.1791 54.9443 24.1465C55.1224 23.7069 55.2924 23.2592 55.4705 22.8033C55.6082 22.4451 55.7458 22.0787 55.8915 21.7042C56.0049 21.3949 56.1344 21.0773 56.2558 20.7598C56.3044 20.6214 56.3611 20.4912 56.4096 20.3528C56.5392 20.019 56.6687 19.6771 56.8063 19.3352C56.8468 19.2375 56.8792 19.1316 56.9196 19.0339C57.0573 18.6757 57.1949 18.3175 57.3406 17.9512C57.5106 17.5115 57.6887 17.0638 57.8668 16.6079C57.8911 16.5427 57.9154 16.4776 57.9397 16.4043C58.6521 15.924 59.3969 15.4356 60.1902 14.9308C60.4169 14.7924 60.6274 14.654 60.8379 14.5156C60.8541 14.5156 60.8622 14.4993 60.8703 14.4912C61.4451 14.1248 61.9794 13.7829 62.4732 13.4654C62.9265 13.1723 63.3556 12.8955 63.7361 12.6432C64.319 12.2605 64.8209 11.9349 65.258 11.6418C65.3309 11.593 65.42 11.5441 65.4928 11.4871C65.6547 11.3813 65.8166 11.2836 65.9785 11.1778C66.4238 10.9091 66.8852 10.6404 67.3629 10.3881C67.6867 10.2171 68.0267 10.0461 68.3667 9.87518C68.6177 9.75306 68.8687 9.63094 69.1358 9.50883C69.1682 9.47626 69.1925 9.45184 69.2249 9.42742C69.2734 9.37857 69.322 9.32972 69.3706 9.28088L69.4272 9.22389C69.4272 9.22389 69.4839 9.1669 69.5082 9.14248C69.5244 9.12619 69.5487 9.10177 69.5649 9.08549C70.002 8.62959 70.2206 8.30394 70.2206 8.1167C70.2206 7.84804 69.743 7.87246 68.7877 8.20625L68.7634 8.18997ZM55.1872 22.2252C54.9605 22.7951 54.7339 23.3569 54.5072 23.9023C54.4829 23.9593 54.4586 24.0244 54.4343 24.0814C54.4019 24.0814 54.3777 24.0814 54.3453 24.0733C54.5234 23.593 54.7015 23.0963 54.8958 22.5753C55.0901 22.0543 55.2844 21.5088 55.4948 20.9389C55.5839 20.7029 55.6648 20.4668 55.7539 20.2307C55.7944 20.1167 55.8348 20.0109 55.8753 19.8969C56.0129 19.5143 56.1506 19.1316 56.2882 18.7571C56.3611 18.5373 56.442 18.3257 56.5149 18.114C56.5877 17.9023 56.6606 17.6906 56.7335 17.4871C56.7739 17.3731 56.8144 17.2673 56.8468 17.1533C56.8468 17.1533 56.8549 17.1533 56.863 17.1452C56.8873 17.1289 56.9116 17.1126 56.9358 17.0963C56.7982 17.5848 56.6606 18.057 56.5149 18.5292C56.4744 18.6513 56.442 18.7734 56.4015 18.8955C56.3611 19.0339 56.3125 19.1723 56.272 19.3107C56.2315 19.4247 56.1992 19.5387 56.1587 19.6527C56.1101 19.7911 56.0615 19.9295 56.013 20.0679C55.9725 20.1818 55.9401 20.2877 55.8996 20.4016C55.762 20.7924 55.6163 21.175 55.4705 21.5495C55.3734 21.7856 55.2844 22.0136 55.1953 22.2415L55.1872 22.2252ZM57.1301 16.3718C57.1301 16.3718 57.1058 16.4532 57.0978 16.4939L57.0735 16.5102C57.1058 16.4044 57.1463 16.3067 57.1787 16.209C57.1706 16.2497 57.1625 16.2822 57.1544 16.3148C57.1544 16.3311 57.1463 16.3555 57.1382 16.3718H57.1301ZM52.2 23.7802C52.1028 23.7639 52.0219 23.7476 51.9328 23.7314C51.7385 23.6988 51.5523 23.6662 51.3742 23.6337C50.8156 23.5278 50.3542 23.4138 49.9737 23.2917C49.7875 23.2347 49.6337 23.1778 49.4961 23.1126C49.6499 22.9335 49.828 22.7381 50.0546 22.5183C50.1518 22.4206 50.257 22.3229 50.3704 22.2171C50.4918 22.1113 50.6132 21.9973 50.7509 21.8752C50.8561 21.7856 50.9694 21.6879 51.0747 21.5902C51.1233 21.5495 51.1718 21.5088 51.2204 21.4681C51.2852 21.4111 51.3499 21.3623 51.4147 21.3053C51.4875 21.2483 51.5523 21.1913 51.6171 21.1343C51.6657 21.0936 51.7142 21.0611 51.7628 21.0204C51.8438 20.9552 51.9247 20.8901 52.0138 20.8168C52.5724 20.3609 53.1957 19.8643 53.9 19.3352C54.0943 19.1886 54.2886 19.0339 54.4991 18.8792L54.5234 18.863C54.6853 18.7408 54.8553 18.6187 55.0172 18.4966C55.2034 18.3582 55.3896 18.2198 55.5839 18.0814C55.7701 17.9512 55.9644 17.8128 56.1587 17.6744C56.2396 17.6174 56.3206 17.5604 56.4015 17.5034C56.2234 18 56.0372 18.4966 55.8591 18.9932C55.7539 19.2863 55.6406 19.5712 55.5272 19.8643C55.4058 20.1818 55.2844 20.4912 55.1629 20.8168C55.0982 20.9878 55.0334 21.1506 54.9686 21.3216C54.6691 22.0868 54.3938 22.8033 54.1267 23.479C54.0538 23.6662 53.981 23.8535 53.9081 24.0326C53.6167 23.9919 53.3252 23.9512 53.05 23.9105C52.7666 23.8698 52.4995 23.829 52.2323 23.7883L52.2 23.7802ZM53.9162 25.4328C53.8838 25.5143 53.8434 25.5957 53.811 25.6689C53.9 25.4166 53.9972 25.156 54.0943 24.8955H54.1429C54.0619 25.0828 53.9891 25.2537 53.9081 25.4328" fill="white"/>
</g>
<defs>
<clipPath id="clip0_11_389">
<rect width="80" height="41.194" fill="white"/>
</clipPath>
</defs>
</svg>
