<svg width="23" height="50" viewBox="0 0 23 50" fill="none" xmlns="http://www.w3.org/2000/svg">
<path d="M7.99826 41.9945H0V49.9928H7.99826V41.9945Z" fill="white"/>
<path d="M0 0V5.50152L44.4985 50H50V44.4985L5.50152 0H0Z" fill="white"/>
<path d="M14.5014 41.0001H19.9956V35.4986L5.50152 20.9972H0V26.4987L14.5014 41.0001Z" fill="white"/>
</svg>
