<svg width="48" height="31" viewBox="0 0 48 31" fill="none" xmlns="http://www.w3.org/2000/svg">
<path d="M6.71728 4.13525V31H4.2153V5.94968H2.56544V31H0V4.13525H6.71728Z" fill="white"/>
<path d="M15.1298 4.13525V16.9488H12.6278V5.90749H10.9779V29.2208H12.6278V18.2709H15.1298V31H8.41248V4.13525H15.1298Z" fill="white"/>
<path d="M23.5422 31H16.834V0H19.336V4.13521H23.5966V5.91447H19.336V29.2207H21.0402V7.19442H23.5422V31Z" fill="white"/>
<path d="M28.6096 31V5.94963H27.8119V4.12817H31.166V31H28.6096Z" fill="white"/>
<path d="M35.3722 19.0937V29.1786H37.0221V19.1359H39.5785V31H32.8702V19.2625C32.8702 17.8138 34.366 16.6604 36.2243 16.6604C36.7048 16.6604 37.0221 16.3721 37.0221 16.0415V6.36458C37.0221 6.03404 36.7048 5.7457 36.2243 5.7457C35.7439 5.7457 35.3722 6.03404 35.3722 6.36458V15.9571H32.8702V6.53336C32.8702 5.08463 34.366 3.93127 36.2243 3.93127C38.0827 3.93127 39.5785 5.09166 39.5785 6.53336V15.8305C39.5785 17.2793 38.0827 18.4748 36.2243 18.4748C35.7439 18.4748 35.3722 18.721 35.3722 19.0937Z" fill="white"/>
<path d="M44.6369 19.9236C44.2108 19.9236 43.8391 20.2541 43.8391 20.5847V31H41.3372V20.7534C41.3372 19.3047 42.8329 18.1514 44.6369 18.1514C45.1173 18.1514 45.489 17.863 45.489 17.5325V5.90749H43.8391V17.4833H41.3372V4.13525H48V17.3567C48 18.7632 46.5043 19.9166 44.6459 19.9166L44.6369 19.9236Z" fill="white"/>
</svg>
